{
    "users" :     [
                 {
                   "email" : "Yann@tictrac.com",
                   "name" : "Yann",
                   "infos": "07766554433"
                 },
                 {
                   "email" : "James@tictrac.com",
                   "name" : "James",
                   "infos": "07788554433"
                 },
                 {
                   "email" : "Olly@tictrac.com",
                   "name" : "Olly",
                   "infos": "07766774433"
                 },
                 {
                   "email" : "JP@tictrac.com",
                   "name" : "JP",
                   "infos": "07766559933"
                 },
                 {
                   "email" : "Martin@tictrac.com",
                   "name" : "Martin",
                   "infos": "07766554400"
                 },
                 {
                   "email" : "Manuel@tictrac.com",
                   "name" : "Manuel",
                   "infos": "07711554433"
                   },
                   {
                   "email" : "Pablo@tictrac.com",
                   "name" : "Pablo",
                   "infos": "07700554433"
                   },
                   {
                   "email" : "Ludo@tictrac.com",
                   "name" : "Ludo",
                   "infos": "07711550033"
                   },
                   {
                   "email" : "Victor@tictrac.com",
                   "name" : "Victor",
                   "infos": "07777554433"
                   },
                   {
                   "email" : "Noor@tictrac.com",
                   "name" : "Noor",
                   "infos": "07777994433"
                   },
                   {
                   "email" : "Ski@tictrac.com",
                   "name" : "Ski",
                   "infos": "08877554433"
                   }
                 ]
}